
/* - old words of interest
			"administrative",
			"administrator",
			"analyst",
			"assistant",
			"associate",
			"consultant",
			"database",
			"law",
			"legal",
			"political",
			"software",
			"recruiter",
			"research",
			"webmaster",
			"writer"
*/