{
	"john.ahn.1987@gmail.com" : {
		"password" : "easy2remember",
		"rss_address" : "http://sfbay.craigslist.org/jjj/index.rss" ,
		"message" : "Hello!\n\nMy name is John Ahn, and I would like to be interviewed for this position.\n\nPlease find attached my cover letter and resume.\nThank you for your time, and I hope to hear from you soon.\n\nSincerely,\nJohn Ahn\n\n{post.link}" ,
		"attachments" : [
			"Ahn, John - Cover Letter.pdf",
			"Ahn, John - Resume.pdf"
		] ,
		"neighborhoods_that_rule_out_an_ad" : [
			"alamo",
			"altos",
			"ashbury",
			"antioch",
			"beach",
			"burlingame",
			"brentwood",
			"cambrian",
			"capitola",
			"carlos",
			"castro",
			"clara",
			"concord",
			"cow",
			"cupertino",
			"daly",
			"danville",
			"dublin",
			"fairfax",
			"fairfield",
			"financial",
			"francisco",
			"fremont",
			"haight",
			"hayward",
			"hollister",
			"lafayette",
			"laurel",
			"livermore",
			"marin",
			"marina",
			"martinez",
			"mateo",
			"menlo",
			"milpitas",
			"mountain",
			"napa",
			"newark",
			"novato",
			"oakley",
			"pacific",
			"palo",
			"petaluma",
			"pinole",
			"pittsburg",
			"pleasanton",
			"portola",
			"potrero",
			"presidio",
			"richmond",
			"redwood",
			"rohnert",
			"san",
			"santa",
			"saratoga",
			"sausalito",
			"sebastapol",
			"sonoma",
			"south",
			"sunnyvale",
			"tenderloin",
			"union",
			"upper",
			"vacaville",
			"view",
			"walnut",
			"willow"
		] ,
		"job_descriptions_that_rule_out_an_ad" : [
			"account",
			"accountant",
			"accounting",
			"architect",
			"arthritis",
			"arts",
			"assurance",
			"auction",
			"bar",
			"bilingual",
			"billing",
			"bookkeeper",
			"call",
			"care",
			"caregiver",
			"case",
			"chef",
			"clinical",
			"comcast",
			"commercial",
			"commission",
			"compensation",
			"compliance",
			"controller",
			"cook",
			"creative",
			"data",
			"database",
			"delivery",
			"dental assistant",
			"dentist",
			"developer",
			"diabetes",
			"dining",
			"directv",
			"dish",
			"dishwasher",
			"dog",
			"driver",
			"education",
			"electrician",
			"engineer",
			"family",
			"fashion",
			"finance",
			"financial",
			"fitness",
			"floor",
			"grooming",
			"grill",
			"guest",
			"head",
			"honda",
			"hospitality",
			"inspector",
			"IT",
			"kitchen",
			"law",
			"leasing",
			"legal",
			"lifeguard",
			"litigation",
			"maintenance",
			"marketing",
			"martial",
			"massage",
			"meals",
			"medical",
			"motorcycle",
			"npo",
			"nurse",
			"optician",
			"optometric",
			"optometry",
			"orthodontic",
			"pantry",
			"policy",
			"political",
			"portfolio",
			"plumber",
			"producer",
			"product",
			"programmer",
			"quality",
			"real estate",
			"realtor",
			"receivable",
			"recruiter",
			"relations",
			"representative",
			"research",
			"restaurant",
			"revenue",
			"sales",
			"sap",
			"site",
			"soccer",
			"storage",
			"store",
			"studies",
			"study",
			"supervisor",
			"system",
			"systems",
			"tax",
			"teacher",
			"technician",
			"therapist",
			"trainer",
			"tutor",
			"varsity",
			"veterinary",
			"wealth",
			"website",
			"youth"
		],
		"words_of_interest" : [
			"administration",
			"administrative",
			"assistant",
			"ceo",
			"executive",
			"personal",
			"receptionist"
		]
	} ,
	"nathan.wailes@gmail.com" : {
		"rss_address" : "http://washingtondc.craigslist.org/doc/jjj/index.rss" ,
		"message" : "Hello,\n\nI'd like to be considered for the position. I have attached my resume and references.\n\n{post.link}\n\nNathan Wailes\n201-316-6159\nnathan.wailes@gmail.com" ,
		"attachments" : [
			"Wailes, Nathan - Resume.pdf",
			"Wailes, Nathan - References.pdf"
		] ,
		"neighborhoods_that_rule_out_an_ad" : [
			"alexandria",
			"annandale",
			"arlington",
			"ashburn",
			"baltimore",
			"beltsville",
			"bethesda",
			"burke",
			"burtonsville",
			"centreville",
			"chantilly",
			"chevy chase",
			"college park",
			"dunn loring",
			"fairfax",
			"falls church",
			"fauquier",
			"forestville",
			"gainesville",
			"gaithersburg",
			"germantown",
			"herndon",
			"landsdowne",
			"laurel",
			"manassas",
			"maryland",
			"mclean",
			"md",
			"montgomery",
			"nova",
			"pohanka",
			"reston",
			"rockville",
			"rosslyn",
			"silver",
			"springfield",
			"sterling",
			"tyson",
			"tysons",
			"va",
			"virginia",
			"warrenton",
			"wheaton"
		],
		"job_descriptions_that_rule_out_an_ad" : [
			"accountant",
			"accounting",
			"architect",
			"arthritis",
			"arts",
			"assurance",
			"auction",
			"baking",
			"bar",
			"bilingual",
			"billing",
			"bookkeeper",
			"brasserie",
			"call",
			"care",
			"caregiver",
			"case",
			"chef",
			"chiropractic",
			"clinical",
			"comcast",
			"commercial",
			"commission",
			"compensation",
			"compliance",
			"controller",
			"cook",
			"creative",
			"delivery",
			"dental",
			"dentist",
			"diabetes",
			"dining",
			"directv",
			"dish",
			"dishwasher",
			"dog",
			"driver",
			"education",
			"electrician",
			"family",
			"fashion",
			"fitness",
			"floor",
			"food",
			"grooming",
			"grill",
			"guest",
			"head",
			"honda",
			"hospitality",
			"inspector",
			"kitchen",
			"leasing",
			"lifeguard",
			"maintenance",
			"martial",
			"massage",
			"meals",
			"medical",
			"motorcycle",
			"npo",
			"nurse",
			"optician",
			"optometric",
			"optometry",
			"orthodontic",
			"pantry",
			"pastry",
			"pizza",
			"portfolio",
			"plumber",
			"producer",
			"quality",
			"real estate",
			"realtor",
			"receivable",
			"recruiter",
			"relations",
			"representative",
			"restaurant",
			"revenue",
			"sales",
			"salon",
			"sap",
			"site",
			"soccer",
			"storage",
			"store",
			"studies",
			"study",
			"supervisor",
			"system",
			"systems",
			"tax",
			"teacher",
			"technician",
			"therapist",
			"therapy",
			"trainer",
			"veterinary",
			"youth"
		],
		"words_of_interest" : [
			"big data",
			"developer",
			"information technology",
			"java",
			"software",
			"software developer",
			"software engineer",
			"webmaster"
		]
	}
}