b'Delivery Driver (Georgetown &amp; Falls Church)',Ruling out this ad because of the word/phrase 'falls\ church' in the title.
"b'Deli Attendant Needed (Fairfax, VA)'",Ruling out this ad because of the word/phrase 'fairfax' in the title.
"b'Senior Director, Data Collection & Quality Improvement (washington dc)'",Ruling out this ad because of the word/phrase 'quality' in the title.
b'Bilingual Field Interviewer (washington dc)',Ruling out this ad because of the word/phrase 'bilingual' in the title.
"b'Catering Sales - Off Premise (Washington, DC Metro)'",Ruling out this ad because of the word/phrase 'sales' in the title.
b'NEED MOVERS TO ULOAD TRUCK TONIGHT (alexandria va)',Ruling out this ad because of the word/phrase 'alexandria' in the title.
"b""2 openings: Ass't Pastry Chef/Head Baker & Barista (NW DC )""",Ruling out this ad because of the word/phrase 'chef' in the title.
b'medical assistant/front desk receptionist (washington dc)',Ruling out this ad because of the word/phrase 'medical' in the title.
"b""Assistant Store Manager (Tyson's Corner)""",Ruling out this ad because of the word/phrase 'tyson' in the title.
"b""Store Manager (Tyson's Corner)""",Ruling out this ad because of the word/phrase 'tyson' in the title.
b'SERVERS needed for busy K Street restaurant + oyster bar (1518 K St NW--immediate hire)',Ruling out this ad because of the word/phrase 'bar' in the title.
