b'High Quality People Needed - $1200 Per Week Average',Ruling out this ad because of the word/phrase 'quality' in the title.
"b'Family Intervention Specialist RELOCATION TO COLUMBUS, IN (Columbus, IN)'",Ruling out this ad because of the word/phrase 'family' in the title.
"b'Part-time HR/Recruiter (Columbia, MD) (Columbia, MD)'",Ruling out this ad because of the word/phrase 'md' in the title.
"b'Robert Wiedmaier Restaurants hiring Bar Manager, Assistant GMs, Server'",Ruling out this ad because of the word/phrase 'bar' in the title.
b'Real Estate Enthusiasts and Self Starters Wanted (DC - NoVa - MD)',Ruling out this ad because of the word/phrase 'md' in the title.
"b'Cashier Needed (Germantown, MD)'",Ruling out this ad because of the word/phrase 'germantown' in the title.
"b'* Server, Cook Opportunities - Gordon Biersch - Navy Yard * (100 M Street SE)'",Ruling out this ad because of the word/phrase 'cook' in the title.
b'Homeowners Research Study (Arlington)',Ruling out this ad because of the word/phrase 'arlington' in the title.
"b'Catering Server/Driver  (Washington, DC)'",Ruling out this ad because of the word/phrase 'driver' in the title.
b'Looking for Head Chef  (Adams Morgan)',Ruling out this ad because of the word/phrase 'chef' in the title.
b'Entry Level Sales Position -- Paid Daily -- Tablet Provided',Ruling out this ad because of the word/phrase 'sales' in the title.
b'Adult ESL and Family Literacy Instructor (nw washington dc)',Ruling out this ad because of the word/phrase 'family' in the title.
"b'Best Buy _ Assistant Store Manager, Sales - Columbia Heights, DC (Columbia Heights, DC)'",Ruling out this ad because of the word/phrase 'sales' in the title.
b'Personal Assistant to 2 Execs--Real Estate Firm--Georgetown--$70K (Washington)',Ruling out this ad because of the word/phrase 'real\ estate' in the title.
"b'Kitchen Prep/Baker Needed at Uprising Muffin Company (Shaw, DC)'",Ruling out this ad because of the word/phrase 'kitchen' in the title.
b'Shake Shack Tysons Corner is Hiring Team Members!',Ruling out this ad because of the word/phrase 'tysons' in the title.
"b'Food Truck team member (Washington, DC )'",Ruling out this ad because of the word/phrase 'food' in the title.
b'Part-time janitorial/maintenance for school (Georgetown)',Ruling out this ad because of the word/phrase 'maintenance' in the title.
b'TEDDY & THE BULLY BAR -SERVERS (1200 19th ST NW)',Ruling out this ad because of the word/phrase 'bar' in the title.
b'Restaurant Manager - Zentan (Thomas Circle)',Ruling out this ad because of the word/phrase 'restaurant' in the title.
"b'Administrative Assistant/Receptionist - PT - 30 hours per week (Silver Spring, MD)'",Ruling out this ad because of the word/phrase 'md' in the title.
b'Anytime K9 DC Dog Walker (Washington DC)',Ruling out this ad because of the word/phrase 'dog' in the title.
b'uber XL driver wanter',Ruling out this ad because of the word/phrase 'driver' in the title.
b'Contracts Administrator (Downtown)',Job Hit!
b'You CAN Love Your Job AND Better the World! $12-$13/hr+bonus (Tysons Corner Center)',Ruling out this ad because of the word/phrase 'tysons' in the title.
"b'Prep/Line Cook (Montclair, VA)'",Ruling out this ad because of the word/phrase 'va' in the title.
b'CDL DRIVER DUMP/ROLLOFF',Ruling out this ad because of the word/phrase 'driver' in the title.
b'Construction  (DC/VA/MD)',Ruling out this ad because of the word/phrase 'md' in the title.
b'SETTE OSTERIA RESTAURANT HIRING PART TIME BARTENDER/SERVERS (DUPONT CIRCLE)',Ruling out this ad because of the word/phrase 'restaurant' in the title.
b'Assistant Manager at Range (5335 Wisconsin Ave)',Job Hit!
b'Software Engineer who Values Workplace Culture...Startup Opportunity!! (DC/VA)',Ruling out this ad because of the word/phrase 'va' in the title.
"b'DENTAL ASSISTANT - ORAL SURGERY (Washington, DC)'",Ruling out this ad because of the word/phrase 'dental' in the title.
b'Marketing and Sales Positions (Washington DC)',Ruling out this ad because of the word/phrase 'sales' in the title.
"b'Therapist (FT or PT) (SE, DC)'",Ruling out this ad because of the word/phrase 'therapist' in the title.
"b'Jazz in the Garden: Food Service Attendants Needed (Washington, DC)'",Ruling out this ad because of the word/phrase 'food' in the title.
"b'Clinical Coordinator (Behavioral Health) (SE, DC)'",Ruling out this ad because of the word/phrase 'clinical' in the title.
b'Front Desk Administrator',Job Hit!
b'Front Desk Administrator',No easy-to-find email address.
b'cook-Prep (nw washington dc)',Ruling out this ad because of the word/phrase 'cook' in the title.
b'Bar Pilar & Saint-Ex seek FOH staff (14th Street)',Ruling out this ad because of the word/phrase 'bar' in the title.
"b'INTERIOR DESIGNER-Commercial/Architectural (Downtown,DC)'",Ruling out this ad because of the word/phrase 'commercial' in the title.
b'Part-time Hospitality work in DC',Ruling out this ad because of the word/phrase 'hospitality' in the title.
b'Maintenance PT',Ruling out this ad because of the word/phrase 'maintenance' in the title.
b'Bilingual Employment Specialist  (Washington)',Ruling out this ad because of the word/phrase 'bilingual' in the title.
b'Auto Inspector',Ruling out this ad because of the word/phrase 'inspector' in the title.
b'Plumbing Design Engineer (Falls Church )',Ruling out this ad because of the word/phrase 'falls\ church' in the title.
b'DC / MD / VA Regional Brewery Rep.  (Stone Brewing Co.) (washington dc)',Ruling out this ad because of the word/phrase 'md' in the title.
b'Shift Supervisor (Penn Quarter)',Ruling out this ad because of the word/phrase 'supervisor' in the title.
"b'Executive Chef- Monday thru Friday (Washington, DC)'",Ruling out this ad because of the word/phrase 'chef' in the title.
b'Pastry Sous Chef',Ruling out this ad because of the word/phrase 'chef' in the title.
"b'Recruiter (Washington, DC)'",Ruling out this ad because of the word/phrase 'recruiter' in the title.
b'Program Assistant/Assistant Program Manager (Dupont Circle)',Job Hit!
b'Program Assistant/Assistant Program Manager (Dupont Circle)',No easy-to-find email address.
"b'Personal Assistant Wanted (Westend, D.C.)'",Job Hit!
b'HIRING DRIVER.. (GEORGETOWN DC)',Ruling out this ad because of the word/phrase 'driver' in the title.
b'SYSTEMS ANALYST NEEDED! (washington dc)',Ruling out this ad because of the word/phrase 'systems' in the title.
"b'Mission Control Center Operations Manager (Suitland, MD)'",Ruling out this ad because of the word/phrase 'md' in the title.
"b'Software Developer (ASP.NET) (Silver Spring, MD)'",Ruling out this ad because of the word/phrase 'md' in the title.
"b'General Maintenance Engineer  (The Jefferson, Washington D.C)'",Ruling out this ad because of the word/phrase 'maintenance' in the title.
"b'Assistant Manager- Museum Cafe (Washington, DC)'",Job Hit!
"b'Information Architect, Web/User Interface Designer'",Ruling out this ad because of the word/phrase 'architect' in the title.
"b""Children's English Teacher in Japan""",Ruling out this ad because of the word/phrase 'teacher' in the title.
"b'Best Buy _ Assistant Store Manager, Operations (Washington, D.C.)'",Ruling out this ad because of the word/phrase 'store' in the title.
"b'Customer Relations Representative (Suitland, MD)'",Ruling out this ad because of the word/phrase 'md' in the title.
"b'Hospitality Staff -- East Potomac Golf Course (Washington,DC)'",Ruling out this ad because of the word/phrase 'hospitality' in the title.
b'Dental Front Office - Patient Coordinator (Alexandria)',Ruling out this ad because of the word/phrase 'alexandria' in the title.
b'Food Truck Chefs Needed for TV',Ruling out this ad because of the word/phrase 'food' in the title.
b'Electricians (Alexandria VA)',Ruling out this ad because of the word/phrase 'alexandria' in the title.
"b'J&M Trucking Inc. is looking for drivers (Beltsville, MD)'",Ruling out this ad because of the word/phrase 'beltsville' in the title.
"b'SALES CONSULTANTS  WANTED  TO ASSIST  OUR CLIENTS (DC, VA &amp; MD)'",Ruling out this ad because of the word/phrase 'md' in the title.
b'Silver Lining for Project Coordinator / Admin Asst.',Ruling out this ad because of the word/phrase 'silver' in the title.
"b'Membership Sales Consultant - Northwest Sport & Health  (NW Washington, DC)'",Ruling out this ad because of the word/phrase 'sales' in the title.
"b'EPA / HVAC Maintenance, Make Ready, & Groundskeeping (DC, MD & VA)'",Ruling out this ad because of the word/phrase 'md' in the title.
"b'Recruiter  (Washington, DC)'",Ruling out this ad because of the word/phrase 'recruiter' in the title.
"b'Senior Sous Chef (Omni Shoreham Hotel) (Washington, DC )'",Ruling out this ad because of the word/phrase 'chef' in the title.
b'Cafe Milano is hiring Lead Servers and Floor Managers',Ruling out this ad because of the word/phrase 'floor' in the title.
b'Therapy asssistant/caregiver (washington dc)',Ruling out this ad because of the word/phrase 'caregiver' in the title.
b'Reservations Sales Agent            (Washington dc)',Ruling out this ad because of the word/phrase 'sales' in the title.
b'Customer Service Specialist w/ Call Center exp (DC)',Ruling out this ad because of the word/phrase 'call' in the title.
b'Hiring Food Couriers ASAP! (District of Columbia)',Ruling out this ad because of the word/phrase 'food' in the title.
"b'DELIVERY  (GTOWN, PALISADE)'",Ruling out this ad because of the word/phrase 'delivery' in the title.
b'OSTERIA MORINI SEEKS SKILLED & ENTRY-LEVEL PASTRY COOKS',Ruling out this ad because of the word/phrase 'pastry' in the title.
"b""Outside Traveling Sales Pro's Needed for Merchant Processing!!!!  (DC USA)""",Ruling out this ad because of the word/phrase 'sales' in the title.
"b""Restaurant Floor Manager - Todd Gray's Watershed (Capitol Hill Area)""",Ruling out this ad because of the word/phrase 'floor' in the title.
b'Vendor Sales Associate',Ruling out this ad because of the word/phrase 'sales' in the title.
"b'AN IMPACTFUL HILL JOB WITHOUT SUITS? IT EXISTS, AND IT PAYS! CALL NOW! (Capitol South)'",Ruling out this ad because of the word/phrase 'call' in the title.
b'Bistro Bis looking for Wine Director/MGR~Pastry Asst~line cook~Servers (Capitol Hill)',Ruling out this ad because of the word/phrase 'cook' in the title.
b'Chef de cuisine for French bistro (Mc Arthur BLVD)',Ruling out this ad because of the word/phrase 'chef' in the title.
b'Oracle SOA Java Developers Needed (DC / MD / VA)',Ruling out this ad because of the word/phrase 'md' in the title.
b'SALES REPS NEEDED WORKING INSIDE COSTCO',Ruling out this ad because of the word/phrase 'sales' in the title.
b'Staff Accountant (Northwest DC)',Ruling out this ad because of the word/phrase 'accountant' in the title.
b'Accountant/Bookkeeper (1323 Connecticut Av)',Ruling out this ad because of the word/phrase 'accountant' in the title.
"b'Personal Care Aide Classes (Arlington, VA) (Arlington, VA)'",Ruling out this ad because of the word/phrase 'arlington' in the title.
b'Vendor Sales Associate for NY Times Featured Startup',Ruling out this ad because of the word/phrase 'sales' in the title.
