{
	"john.ahn.1987@gmail.com" : {
		"password" : "easy2remember",
		"rss_address" : "http://washingtondc.craigslist.org/doc/jjj/index.rss" ,
		"message" : "Hello!\n\nMy name is John Ahn, and I would like to be interviewed for this position.\n\nPlease find attached my cover letter and resume.\nThank you for your time, and I hope to hear from you soon.\n\nSincerely,\nJohn Ahn\n\n{listing.url}" ,
		"attachments" : [
			"Ahn, John - Cover Letter.pdf",
			"Ahn, John - Resume.pdf"
		] ,
		"neighborhoods_that_rule_out_an_ad" : [
		] ,
		"job_descriptions_that_rule_out_an_ad" : [
			"account",
			"accountant",
			"accounting",
			"architect",
			"arthritis",
			"arts",
			"assurance",
			"auction",
			"bank",
			"banker",
			"bar",
			"bilingual",
			"billing",
			"bookkeeper",
			"call",
			"care",
			"caregiver",
			"case",
			"chef",
			"clinical",
			"comcast",
			"commercial",
			"commission",
			"compensation",
			"compliance",
			"controller",
			"cook",
			"creative",
			"data",
			"database",
			"delivery",
			"dental",
			"dentist",
			"developer",
			"diabetes",
			"dining",
			"directv",
			"dish",
			"dishwasher",
			"dog",
			"driver",
			"education",
			"electrician",
			"engineer",
			"family",
			"fashion",
			"finance",
			"financial",
			"fitness",
			"floor",
			"grooming",
			"grill",
			"guest",
			"head",
			"honda",
			"hospitality",
			"inspector",
			"IT",
			"kitchen",
			"law",
			"leasing",
			"legal",
			"lifeguard",
			"litigation",
			"maintenance",
			"marketing",
			"martial",
			"massage",
			"meals",
			"medical",
			"motorcycle",
			"npo",
			"nurse",
			"optician",
			"optometric",
			"optometry",
			"orthodontic",
			"pantry",
			"policy",
			"political",
			"portfolio",
			"plumber",
			"producer",
			"product",
			"programmer",
			"quality",
			"real estate",
			"realtor",
			"receivable",
			"recruiter",
			"relations",
			"representative",
			"research",
			"restaurant",
			"revenue",
			"sales",
			"sap",
			"site",
			"soccer",
			"storage",
			"store",
			"studies",
			"study",
			"supervisor",
			"system",
			"systems",
			"tax",
			"teacher",
			"technician",
			"therapist",
			"trainer",
			"tutor",
			"varsity",
			"veterinary",
			"wealth",
			"website",
			"youth"
		],
		"words_of_interest" : [
			"administration",
			"administrative",
			"assistant",
			"ceo",
			"executive",
			"personal",
			"receptionist"
		]
	}
}