"b'Outreach Coordinator (Real Estate) (Washington, DC)'",Ruling out this ad because of the word/phrase 'real\ estate' in the title.
b'Business Development/Marketing Representative (Recent Grads Welcome)',Ruling out this ad because of the word/phrase 'representative' in the title.
"b'direct care staff, residential counselor, mental health counselor,  (DISTRICT OF COLUMBIA )'",Ruling out this ad because of the word/phrase 'care' in the title.
b'Senior Security Alarm Technician (NW DC)',Ruling out this ad because of the word/phrase 'technician' in the title.
"b'Nurse for Flu Shots (RN, LPN, LVN)--Urgent Next Week (DC and some MD )'",Ruling out this ad because of the word/phrase 'md' in the title.
b'Administrative Coordinator (Metro Center)',Job Hit!
"b'Outreach Coordinator (Real Estate) (Washington, DC)'",Ruling out this ad because of the word/phrase 'real\ estate' in the title.
b'Business Development/Marketing Representative (Recent Grads Welcome)',Ruling out this ad because of the word/phrase 'representative' in the title.
"b'direct care staff, residential counselor, mental health counselor,  (DISTRICT OF COLUMBIA )'",Ruling out this ad because of the word/phrase 'care' in the title.
b'Senior Security Alarm Technician (NW DC)',Ruling out this ad because of the word/phrase 'technician' in the title.
"b'Nurse for Flu Shots (RN, LPN, LVN)--Urgent Next Week (DC and some MD )'",Ruling out this ad because of the word/phrase 'md' in the title.
b'Administrative Coordinator (Metro Center)',Job Hit!
"b'Outreach Coordinator (Real Estate) (Washington, DC)'",Ruling out this ad because of the word/phrase 'real\ estate' in the title.
b'Business Development/Marketing Representative (Recent Grads Welcome)',Ruling out this ad because of the word/phrase 'representative' in the title.
"b'direct care staff, residential counselor, mental health counselor,  (DISTRICT OF COLUMBIA )'",Ruling out this ad because of the word/phrase 'care' in the title.
b'Senior Security Alarm Technician (NW DC)',Ruling out this ad because of the word/phrase 'technician' in the title.
"b'Nurse for Flu Shots (RN, LPN, LVN)--Urgent Next Week (DC and some MD )'",Ruling out this ad because of the word/phrase 'md' in the title.
b'Administrative Coordinator (Metro Center)',Job Hit!
"b'Outreach Coordinator (Real Estate) (Washington, DC)'",Ruling out this ad because of the word/phrase 'real\ estate' in the title.
b'Business Development/Marketing Representative (Recent Grads Welcome)',Ruling out this ad because of the word/phrase 'representative' in the title.
"b'direct care staff, residential counselor, mental health counselor,  (DISTRICT OF COLUMBIA )'",Ruling out this ad because of the word/phrase 'care' in the title.
b'Senior Security Alarm Technician (NW DC)',Ruling out this ad because of the word/phrase 'technician' in the title.
"b'Nurse for Flu Shots (RN, LPN, LVN)--Urgent Next Week (DC and some MD )'",Ruling out this ad because of the word/phrase 'md' in the title.
b'Administrative Coordinator (Metro Center)',Job Hit!
"b'Outreach Coordinator (Real Estate) (Washington, DC)'",Ruling out this ad because of the word/phrase 'real\ estate' in the title.
b'Business Development/Marketing Representative (Recent Grads Welcome)',Ruling out this ad because of the word/phrase 'representative' in the title.
"b'direct care staff, residential counselor, mental health counselor,  (DISTRICT OF COLUMBIA )'",Ruling out this ad because of the word/phrase 'care' in the title.
b'Senior Security Alarm Technician (NW DC)',Ruling out this ad because of the word/phrase 'technician' in the title.
"b'Nurse for Flu Shots (RN, LPN, LVN)--Urgent Next Week (DC and some MD )'",Ruling out this ad because of the word/phrase 'md' in the title.
b'Administrative Coordinator (Metro Center)',Job Hit!
Administrative Coordinator (Metro Center),No easy-to-find email address.
b'Iron Gate seeks Sous Chef (1734 N Street NW WAshington DC)',Ruling out this ad because of the word/phrase 'chef' in the title.
b'Fine Jewelry Sales Associate (PT) (Arlington-Henderson Hall)',Ruling out this ad because of the word/phrase 'arlington' in the title.
