{
	"nathan.wailes@gmail.com" : {
		"rss_address" : "http://washingtondc.craigslist.org/doc/jjj/index.rss" ,
		"message" : "Hello,\n\nI'd like to be considered for the position. I have attached my resume and references.\n\n{listing.url}\n\nNathan Wailes\n201-316-6159\nnathan.wailes@gmail.com" ,
		"attachments" : [
			"Wailes, Nathan - Resume.pdf",
			"Wailes, Nathan - References.pdf"
		] ,
		"neighborhoods_that_rule_out_an_ad" : [
			"alexandria",
			"annandale",
			"arlington",
			"ashburn",
			"baltimore",
			"beltsville",
			"bethesda",
			"burke",
			"burtonsville",
			"centreville",
			"chantilly",
			"chevy chase",
			"college park",
			"dunn loring",
			"fairfax",
			"falls church",
			"fauquier",
			"forestville",
			"gainesville",
			"gaithersburg",
			"germantown",
			"herndon",
			"landsdowne",
			"laurel",
			"manassas",
			"maryland",
			"mclean",
			"md",
			"montgomery",
			"nova",
			"pohanka",
			"reston",
			"rockville",
			"rosslyn",
			"silver",
			"springfield",
			"sterling",
			"tyson",
			"tysons",
			"va",
			"virginia",
			"warrenton",
			"wheaton"
		],
		"job_descriptions_that_rule_out_an_ad" : [
			"accountant",
			"accounting",
			"architect",
			"arthritis",
			"arts",
			"assurance",
			"auction",
			"baking",
			"bar",
			"bilingual",
			"billing",
			"bookkeeper",
			"brasserie",
			"call",
			"care",
			"caregiver",
			"case",
			"chef",
			"chiropractic",
			"clinical",
			"comcast",
			"commercial",
			"commission",
			"compensation",
			"compliance",
			"controller",
			"cook",
			"creative",
			"delivery",
			"dental",
			"dentist",
			"diabetes",
			"dining",
			"directv",
			"dish",
			"dishwasher",
			"dog",
			"driver",
			"education",
			"electrician",
			"family",
			"fashion",
			"fitness",
			"floor",
			"food",
			"grooming",
			"grill",
			"guest",
			"head",
			"honda",
			"hospitality",
			"inspector",
			"kitchen",
			"leasing",
			"lifeguard",
			"maintenance",
			"martial",
			"massage",
			"meals",
			"medical",
			"motorcycle",
			"npo",
			"nurse",
			"optician",
			"optometric",
			"optometry",
			"orthodontic",
			"pantry",
			"pastry",
			"pizza",
			"portfolio",
			"plumber",
			"producer",
			"quality",
			"real estate",
			"realtor",
			"receivable",
			"recruiter",
			"relations",
			"representative",
			"restaurant",
			"revenue",
			"sales",
			"salon",
			"sap",
			"site",
			"soccer",
			"storage",
			"store",
			"studies",
			"study",
			"supervisor",
			"system",
			"systems",
			"tax",
			"teacher",
			"technician",
			"therapist",
			"therapy",
			"trainer",
			"veterinary",
			"youth"
		],
		"words_of_interest" : [
			"big data",
			"developer",
			"information technology",
			"java",
			"software",
			"software developer",
			"software engineer",
			"webmaster"
		]
	}
}