b'TOP PAY GREAT SERVERS -ROSA MEXICANO CHEVY CHASE (Chevy Chase)',Ruling out this ad because of the word/phrase 'chevy\ chase' in the title.
"b'RAM Management Analyst II (Rosslyn,VA)'",Ruling out this ad because of the word/phrase 'rosslyn' in the title.
b'Delivery Truck Driver - Non-CDL  (DC-Metro Area)',Ruling out this ad because of the word/phrase 'delivery' in the title.
"b'Physician Assistant or Nurse Practitioner (Washington, DC)'",Ruling out this ad because of the word/phrase 'nurse' in the title.
b'Regional Sales Manager (D.C./ Baltimore)',Ruling out this ad because of the word/phrase 'baltimore' in the title.
b'Help an AU Freshman with Medical Condition (American University\t)',Ruling out this ad because of the word/phrase 'medical' in the title.
b'Restaurant District Manager Needed (Northern VA)',Ruling out this ad because of the word/phrase 'va' in the title.
b'Mortgage Protection Sales [Part-Time/Full-Time]',Ruling out this ad because of the word/phrase 'sales' in the title.
"b'NOA1406 .NET DEVELOPER (Urgent)  (Germantown &amp; Largo, MD)'",Ruling out this ad because of the word/phrase 'germantown' in the title.
"b'Software Engineer - Immediate Need Active ATF clearance (Washington, DC)'",Job Hit!
b'Business Development Representative (DuPont Circle)',Ruling out this ad because of the word/phrase 'representative' in the title.
b'DO YOU WANT TO GET OUT OF THE FOOD & BEV. INDUSTRY? (DC)',Ruling out this ad because of the word/phrase 'food' in the title.
b'Need Super Heroes To Help Us Save The World! (NoVa)',Ruling out this ad because of the word/phrase 'nova' in the title.
b'DC COAST-Upscale K Street Restaurant Hiring Servers (K St NW)',Ruling out this ad because of the word/phrase 'restaurant' in the title.
b'Sales Associates/Key Holders (National Harbor)',Ruling out this ad because of the word/phrase 'sales' in the title.
b'Assistant Store Manager - Part Time (Fashion Center)',Ruling out this ad because of the word/phrase 'fashion' in the title.
b'Medical Master Aesthetician NW Washington DC Dermatology  (Farragut Square)',Ruling out this ad because of the word/phrase 'medical' in the title.
b'Dental Hygienist (Maryland)',Ruling out this ad because of the word/phrase 'maryland' in the title.
b'Retail Sales Associate (Downtown DC)',Ruling out this ad because of the word/phrase 'sales' in the title.
"b'Leasing Consultant (NW Washington, DC)'",Ruling out this ad because of the word/phrase 'leasing' in the title.
"b'O/O & Lease Purchase!! Average Annual Revenue $175K!!!!! (Washington, DC)'",Ruling out this ad because of the word/phrase 'revenue' in the title.
b'Tax Attorney',Ruling out this ad because of the word/phrase 'tax' in the title.
"b""Michael Kors Georgetown is hiring Sales Associate's (Washington DC)""",Ruling out this ad because of the word/phrase 'sales' in the title.
"b'2 Day Phlebotomy Classes For Healthcare Professionals $285.00!! (August 22nd,23rd &amp; 24th College Park &amp; Baltimore)'",Ruling out this ad because of the word/phrase 'baltimore' in the title.
"b""Del Frisco's Grille - Servers, Host Staff & Food Runners (1201 Pennsylvania Ave NW in Washington)""",Ruling out this ad because of the word/phrase 'food' in the title.
b'Electronic Warranty CO. Expanding in DC/MD/VA ! IMMEDIATE OPENINGS NOW (DC/MD/VA)',Ruling out this ad because of the word/phrase 'md' in the title.
b'Bilingual Insurance Account Rep - State Farm Team Member (Gaithersburg)',Ruling out this ad because of the word/phrase 'gaithersburg' in the title.
b'Last call: Fun & dedicated bartenders for cheesy E. Market location (Eastern Market)',Ruling out this ad because of the word/phrase 'call' in the title.
"b'Warehouse Associate (Alexandria, VA)'",Ruling out this ad because of the word/phrase 'alexandria' in the title.
"b'FLATBED TRUCK DRIVERS - LOOKING FOR CONSISTENT MILES? CALL TODAY! (washington, DC)'",Ruling out this ad because of the word/phrase 'call' in the title.
"b""Associate Two's Teacher (Smithsonian Early Enrichment Center) (National Mall, Washington DC)""",Ruling out this ad because of the word/phrase 'teacher' in the title.
b'Impact Education Reform as a Volunteer Coordinator w/Reading Partners (washington dc)',Ruling out this ad because of the word/phrase 'education' in the title.
"b'Leasing Agent for Property Management Company in DC (Washington, DC)'",Ruling out this ad because of the word/phrase 'leasing' in the title.
"b'Standards Manager, AIAA (Reston)'",Ruling out this ad because of the word/phrase 'reston' in the title.
b'SQL Server developer (washington dc)',Job Hit!
"b'Dynamic EXECUTIVE CHEF for upcoming high end Washington, DC Venue (Washington, DC NW)'",Ruling out this ad because of the word/phrase 'chef' in the title.
"b'Sandwich Shop in Olney, MD (Montgomery County)'",Ruling out this ad because of the word/phrase 'md' in the title.
"b'Cooks, kitchen staff, runners, bar back, & more for NEW high end venue (Washington, DC NW)'",Ruling out this ad because of the word/phrase 'bar' in the title.
"b'CREATIVE CIRCLE is HIRING! - Sales Account Executive (Washington, DC)'",Ruling out this ad because of the word/phrase 'creative' in the title.
b'Sales Dream Job-6 figure potential-pt/ft',Ruling out this ad because of the word/phrase 'sales' in the title.
"b'Adminstrative Assistant (Chantilly, VA)'",Ruling out this ad because of the word/phrase 'chantilly' in the title.
"b'Front-desk Medical Office Assistant (Silver Spring,MD)'",Ruling out this ad because of the word/phrase 'md' in the title.
"b'Front Desk,Engineer,Auditor,Cook,Housekeeper (alexandria va)'",Ruling out this ad because of the word/phrase 'alexandria' in the title.
b'On-Call Labor Support (Metropolitan Area)',Ruling out this ad because of the word/phrase 'call' in the title.
b'Become a Special Education Teacher (Washington DC)',Ruling out this ad because of the word/phrase 'education' in the title.
"b""Macy's Wheaton Mall, Wheaton, MD: Retail Cosmetics Sales - Beauty Advisor Estee  (Wheaton)""",Ruling out this ad because of the word/phrase 'md' in the title.
"b'508 Compliance Coordinator (Washington, DC)'",Ruling out this ad because of the word/phrase 'compliance' in the title.
b'Algebra Teacher (SE DC)',Ruling out this ad because of the word/phrase 'teacher' in the title.
"b'Early Childhood Teacher (Reston, VA)'",Ruling out this ad because of the word/phrase 'reston' in the title.
b'Experienced Leasing Professional (DC/VA/MD)',Ruling out this ad because of the word/phrase 'md' in the title.
"b'Now Seeking PASTRY COOKS at Le Diplomate! (Washington, DC)'",Ruling out this ad because of the word/phrase 'pastry' in the title.
"b'Guest Service Representative - JW Marriott (Washington, DC)'",Ruling out this ad because of the word/phrase 'guest' in the title.
"b'Nurse Manager  (Washington, DC)'",Ruling out this ad because of the word/phrase 'nurse' in the title.
b'Hotel Audio Visual (AV) Supervisor (Washington DC)',Ruling out this ad because of the word/phrase 'supervisor' in the title.
"b'Zumba Instructor  (Hyattsville, MD)'",Ruling out this ad because of the word/phrase 'md' in the title.
b'Natural Haircare Stylist (MD/VA)',Ruling out this ad because of the word/phrase 'md' in the title.
"b'Temporary Receptionist (Gaithersburg, MD)'",Ruling out this ad because of the word/phrase 'gaithersburg' in the title.
"b'Building Maintenance Engineer (Rockville, MD)'",Ruling out this ad because of the word/phrase 'md' in the title.
b'Assistant Property Manager / Leasing Agent for DC Real Estate Firm (Dupont Circle)',Ruling out this ad because of the word/phrase 'leasing' in the title.
"b'Chief Engineer (Rockville, MD)'",Ruling out this ad because of the word/phrase 'md' in the title.
"b'Patent Prosecution Specialist (Alexandria, VA)'",Ruling out this ad because of the word/phrase 'alexandria' in the title.
b'(SUMMER/FALL) Hiring SAT Math TEACHERS ASAP! (Centreville)',Ruling out this ad because of the word/phrase 'centreville' in the title.
b'RESIDENTIAL MAINTENANCE TECH NEEDED... (washington dc)',Ruling out this ad because of the word/phrase 'maintenance' in the title.
b'Front Desk Concierge Needed (DC/MD/VA)',Ruling out this ad because of the word/phrase 'md' in the title.
"b'Nestle USA - Delivery Agent (CDL A) - Local Driving!! (Manassas, VA)'",Ruling out this ad because of the word/phrase 'manassas' in the title.
b'Senior SQL Server Developer (Washington DC)',Job Hit!
b'Systems Administrator (Typsons Corner)',Ruling out this ad because of the word/phrase 'systems' in the title.
b'Full-Tim Kitchen Utility Worker (NE DC)',Ruling out this ad because of the word/phrase 'kitchen' in the title.
b'Restoration Supervisor - IICRC Water/Fire (Baltimore)',Ruling out this ad because of the word/phrase 'baltimore' in the title.
b'Tutors Needed! Test Prep and Academic Subjects - $40/hour+ (DC MD VA)',Ruling out this ad because of the word/phrase 'md' in the title.
"b'FINE DINING SERVER, BACK SERVER & HOST STAFF  (Dupont Circle)'",Ruling out this ad because of the word/phrase 'dining' in the title.
b'Labor y Albaniles  (Rosslyn)',Ruling out this ad because of the word/phrase 'rosslyn' in the title.
"b'Kitchen Supervisor - Full Service Restaurant   (Washington, DC)'",Ruling out this ad because of the word/phrase 'kitchen' in the title.
"b""Assistant Restaurant Manager Needed - Reagan Nat'l Airport (Washington, D.C.)""",Ruling out this ad because of the word/phrase 'restaurant' in the title.
"b'CDL Class A or B (Roll off Driver) (Washington, DC)'",Ruling out this ad because of the word/phrase 'driver' in the title.
"b'Digital Campaigns Producer (Washington, DC)'",Ruling out this ad because of the word/phrase 'producer' in the title.
b'INSIDE SALES POSITION FOR STARTUP INCUBATOR (Washington DC)',Ruling out this ad because of the word/phrase 'sales' in the title.
b'Guidance Counselor (District of Columbia/Maryland)',Ruling out this ad because of the word/phrase 'maryland' in the title.
"b'Account Manager (Beltsville, MD)'",Ruling out this ad because of the word/phrase 'beltsville' in the title.
b'Capitol Hill restaurant seeks experienced servers (322 Massachusetts Ave NE)',Ruling out this ad because of the word/phrase 'restaurant' in the title.
b'Technical Instructional Systems Designer (Vienna)',Ruling out this ad because of the word/phrase 'systems' in the title.
b'Class A CDL Food Delivery Local Route Driver (DC metro)',Ruling out this ad because of the word/phrase 'delivery' in the title.
b'Full-Time Kitchen Utility Worker (NE DC)',Ruling out this ad because of the word/phrase 'kitchen' in the title.
b'EXPERIENCED AND LEAD CARPENTERS NEEDED IMMEDIATELY (Fauquier/Loudoun/PW/Fairfax/Arlington)',Ruling out this ad because of the word/phrase 'arlington' in the title.
"b'HR/Admin Part Time (Largo, MD)'",Ruling out this ad because of the word/phrase 'md' in the title.
b'Delivery Driver (Georgetown &amp; Falls Church)',Ruling out this ad because of the word/phrase 'falls\ church' in the title.
"b'Deli Attendant Needed (Fairfax, VA)'",Ruling out this ad because of the word/phrase 'fairfax' in the title.
"b'Senior Director, Data Collection & Quality Improvement (washington dc)'",Ruling out this ad because of the word/phrase 'quality' in the title.
b'Bilingual Field Interviewer (washington dc)',Ruling out this ad because of the word/phrase 'bilingual' in the title.
"b'Catering Sales - Off Premise (Washington, DC Metro)'",Ruling out this ad because of the word/phrase 'sales' in the title.
b'NEED MOVERS TO ULOAD TRUCK TONIGHT (alexandria va)',Ruling out this ad because of the word/phrase 'alexandria' in the title.
"b""2 openings: Ass't Pastry Chef/Head Baker & Barista (NW DC )""",Ruling out this ad because of the word/phrase 'chef' in the title.
b'medical assistant/front desk receptionist (washington dc)',Ruling out this ad because of the word/phrase 'medical' in the title.
"b""Assistant Store Manager (Tyson's Corner)""",Ruling out this ad because of the word/phrase 'tyson' in the title.
"b""Store Manager (Tyson's Corner)""",Ruling out this ad because of the word/phrase 'tyson' in the title.
b'SERVERS needed for busy K Street restaurant + oyster bar (1518 K St NW--immediate hire)',Ruling out this ad because of the word/phrase 'bar' in the title.
