{
	"account" : {},
	"accountant" : {},
	"accounting" : {},
	"architect" : {},
	"arthritis" : {},
	"arts" : {},
	"assurance" : {},
	"auction" : {},
	"bar" : {},
	"bilingual": {},
	"billing": {},
	"bookkeeper" : {},
	"call" : {},
	"care" : {},
	"caregiver" : {},
	"case" : {},
	"chef" : {},
	"clinical" : {},
	"comcast" : {},
	"commercial" : {},
	"commission" : {},
	"compensation" : {},
	"compliance" : {},
	"controller" : {},
	"cook" : {},
	"creative" : {},
	"data" : {},
	"database" : {},
	"delivery" : {},
	"dental assistant" : {},
	"dentist" : {},
	"developer" : {},
	"diabetes" : {},
	"dining" : {},
	"directv" : {},
	"dish" : {},
	"dishwasher" : {},
	"dog" : {},
	"driver" : {},
	"education" : {},
	"electrician" : {},
	"engineer" : {},
	"family" : {},
	"fashion" : {},
	"finance" : {},
	"financial" : {},
	"fitness" : {},
	"floor" : {},
	"grooming" : {},
	"grill" : {},
	"guest" : {},
	"head" : {},
	"honda" : {},
	"hospitality" : {},
	"inspector" : {},
	"IT" : {},
	"kitchen" : {},
	"law" : {},
	"leasing" : {},
	"legal" : {},
	"lifeguard" : {},
	"litigation" : {},
	"maintenance" : {},
	"marketing" : {},
	"martial" : {},
	"massage" : {},
	"meals" : {},
	"medical" : {},
	"motorcycle" : {},
	"npo" : {},
	"nurse" : {},
	"optician" : {},
	"optometric" : {},
	"optometry" : {},
	"orthodontic" : {},
	"pantry" : {},
	"policy" : {},
	"political" : {},
	"portfolio" : {},
	"plumber" : {},
	"producer" : {},
	"product" : {},
	"programmer" : {},
	"quality" : {},
	"real estate" : {},
	"realtor" : {},
	"receivable" : {},
	"recruiter" : {},
	"relations" : {},
	"representative" : {},
	"research" : {},
	"restaurant" : {},
	"revenue" : {},
	"sales" : {},
	"sap" : {},
	"site" : {},
	"soccer" : {},
	"storage" : {},
	"store" : {},
	"studies" : {},
	"study" : {},
	"supervisor" : {},
	"system" : {},
	"systems" : {},
	"tax" : {},
	"teacher" : {},
	"technician" : {},
	"therapist" : {},
	"trainer" : {},
	"tutor" : {},
	"veterinary" : {},
	"wealth" : {},
	"website" : {},
	"youth" : {}
}