{
	"alexandria" : {}, 
	"annandale" : {}, 
	"arlington" : {}, 
	"ashburn" : {}, 
	"beltsville" : {}, 
	"bethesda" : {},
	"centreville" : {},
	"chantilly" : {},
	"fairfax" : {},
	"gainesville":{}, 
	"herndon" : {},
	"manassas" : {}, 
	"maryland" : {}, 
	"md" : {},
	"montgomery" : {},
	"reston" : {}, 
	"rockville" : {}, 
	"rosslyn" : {},
	"silver" : {}, 
	"springfield" : {},  
	"sterling" : {},
	"tysons" : {},
	"va" : {}, 
	"virginia" : {},
}