"b'Massage Therapist (Dupont Circle,DC)'",Ruling out this ad because of the word/phrase 'massage' in the title.
b'Enterprise Level XML Architect (Washington DC)',Ruling out this ad because of the word/phrase 'architect' in the title.
b'Assistant Campaign Manager ( AE )',Job Hit!
b'Assistant Campaign Manager ( AE )',No easy-to-find email address.
"b'&#9733; Pet Sitters & Dog Walkers Wanted! (DC, PG County MD, Arl , Alex VA)'",Ruling out this ad because of the word/phrase 'md' in the title.
"b'Market Manager- Washington, DC (Washington, DC)'",Job Hit!
"b'Market Manager- Washington, DC (Washington, DC)'",No easy-to-find email address.
b'Corner Bakery Cafe - Area Catering Sales & Marketing Manager (Washington DC Metro Area)',Ruling out this ad because of the word/phrase 'sales' in the title.
"b'Hiring Line Cooks and Prep Cooks at Legal Sea Foods in Crystal City (Legal Sea Foods- Arlington, VA)'",Ruling out this ad because of the word/phrase 'arlington' in the title.
b'All Back Of House Restaurant Positions (washington dc)',Ruling out this ad because of the word/phrase 'restaurant' in the title.
b'Dental Hygienist  (Washington D.C)',Ruling out this ad because of the word/phrase 'dental' in the title.
b'Accounting Support Role - Quickbooks Experience Required (Washington)',Ruling out this ad because of the word/phrase 'accounting' in the title.
"b'Onsite Property Maintenance  (Washington, DC)'",Ruling out this ad because of the word/phrase 'maintenance' in the title.
"b'Retail/Ride Operations Assistant Managers and Team Leaders (Washington, DC)'",Job Hit!
"b'Hiring dog walker (Petworth, Columbia Heights, Park View)'",Ruling out this ad because of the word/phrase 'dog' in the title.
b'** FULL time Medical Assistant/Phleb - INTERVIEWING THIS WEEKEND*** (West End )',Ruling out this ad because of the word/phrase 'medical' in the title.
b'SALES PROFESSIONALS BUSINESS TO BUSINESS - EARN $100K+ IN THIS ECONOMY (WORK FROM HOME OFFICE)',Ruling out this ad because of the word/phrase 'sales' in the title.
"b'Servers, Baristas, Kitchen Staff - Le Pain Quotidien (Dupont Circle)'",Ruling out this ad because of the word/phrase 'kitchen' in the title.
b'Assistant Manager/ Banquet Manager (Washington DC)',Job Hit!
b'Dental Receptionist (NW DC)',Ruling out this ad because of the word/phrase 'dental' in the title.
b'Temporary Administrative Assistant',Job Hit!
b'Immediate Opening for Dental Hygienist (DC Metro)',Ruling out this ad because of the word/phrase 'dental' in the title.
"b'Hosts Needed (Reston, VA)'",Ruling out this ad because of the word/phrase 'reston' in the title.
b'Legal Assistant/Paralegal entry - 2years experience (DC)',Job Hit!
"b'Computerized Note-Taker/Verbatim Hearing Recorder (Washington DC/Charlotte Hall, MD)'",Ruling out this ad because of the word/phrase 'md' in the title.
b'Part-Time Researcher For Dynamic Start-Up (Silver Spring)',Ruling out this ad because of the word/phrase 'silver' in the title.
b'Great Accounting Opportunity - Controller (Downtown - Farragut Square)',Ruling out this ad because of the word/phrase 'accounting' in the title.
b'Outside Sales Executive / Restaurant Wrangler',Ruling out this ad because of the word/phrase 'restaurant' in the title.
b'Retail Sales Associate!!! (Laurel)',Ruling out this ad because of the word/phrase 'laurel' in the title.
b'HISTORIC ARCHITECT (nw washington dc)',Ruling out this ad because of the word/phrase 'architect' in the title.
"b'Administrative Assistant/Licensed Agent for Real Estate Office  (NW, DC)'",Ruling out this ad because of the word/phrase 'real\ estate' in the title.
b'Exciting Opportunity in Fashion (Work from home)',Ruling out this ad because of the word/phrase 'fashion' in the title.
b'New Restaurant & Market Hiring Baristas/Cashiers/Servers (U Street)',Ruling out this ad because of the word/phrase 'restaurant' in the title.
"b'Audio Visual Technician - Video (live switching, projection, camera) (Washington DC)'",Ruling out this ad because of the word/phrase 'technician' in the title.
b'Part Time Sales Associate -store # 526 (Fairfax Va)',Ruling out this ad because of the word/phrase 'fairfax' in the title.
b'Auto Technician/Mechanic Needed (Lanham)',Ruling out this ad because of the word/phrase 'technician' in the title.
"b'Bilingual Substance Abuse Counselor  (Columbia Heights, DC)'",Ruling out this ad because of the word/phrase 'bilingual' in the title.
"b'Barn Manager- Rock Creek Horse Center (Washington, DC)'",Job Hit!
"b'Hiring for Experienced Electrician (Washington, D.C.)'",Ruling out this ad because of the word/phrase 'electrician' in the title.
"b'Legal Assistant (Washington, DC)'",Job Hit!
b'Sales pros -- Outbound dialer experience? Work from home!  (Follow up with online consumer inquiries)',Ruling out this ad because of the word/phrase 'sales' in the title.
"b'Skilled Electricians (Columbia,MD)'",Ruling out this ad because of the word/phrase 'md' in the title.
b'Experienced Apartment Maintenance ASAP (washington dc)',Ruling out this ad because of the word/phrase 'maintenance' in the title.
b'Leasing Consultants- Apply Today! (DC Metro Area)',Ruling out this ad because of the word/phrase 'leasing' in the title.
b'Receptionist/Conference Room Scheduler (washington dc)',Job Hit!
"b'Night Auditor/Guest Service Rep (Holiday Inn Central, Washington DC)'",Ruling out this ad because of the word/phrase 'guest' in the title.
b'Medical Assistant/Personal Assistant (Washington DC)',Ruling out this ad because of the word/phrase 'medical' in the title.
"b'ENTRY LEVEL PROJECT ENGINEER (Bethesda, MD)'",Ruling out this ad because of the word/phrase 'bethesda' in the title.
"b'(PT) Morning Driver and PT  Evening Driver (Washington, DC )'",Ruling out this ad because of the word/phrase 'driver' in the title.
b'BLT Steak Seeks Sous Chef (1625 I St NW)',Ruling out this ad because of the word/phrase 'chef' in the title.
b'EXECUTIVE CHEF - LURE RESTAURANT (Midtown Atlanta)',Ruling out this ad because of the word/phrase 'chef' in the title.
b'Zara Seeking Stockroom Supervisor in Washington area! (Georgetown)',Ruling out this ad because of the word/phrase 'supervisor' in the title.
"b'Account Manager / Field Technician $60K-$90K+ (Sterling, VA)'",Ruling out this ad because of the word/phrase 'sterling' in the title.
b'Commercial Lease Administrator (Washington DC)',Ruling out this ad because of the word/phrase 'commercial' in the title.
"b'Technical Support Representative - Entry Level (NE Washington, DC)'",Ruling out this ad because of the word/phrase 'representative' in the title.
b'Kitchen Help (Georgetown)',Ruling out this ad because of the word/phrase 'kitchen' in the title.
b'Organic Superfoods Sales (washington dc)',Ruling out this ad because of the word/phrase 'sales' in the title.
b'Assistant Manager (M Street)',Job Hit!
b'Assistant Manager (M Street)',No easy-to-find email address.
"b'Front Desk Concierge for Luxury Apartments (DC, MD &amp; VA)'",Ruling out this ad because of the word/phrase 'md' in the title.
b'Project Manager (1825 7th NW)',Job Hit!
"b'Sous Chef- Business Dining (Washington, DC)'",Ruling out this ad because of the word/phrase 'chef' in the title.
b'Mechanic (Alexandria)',Ruling out this ad because of the word/phrase 'alexandria' in the title.
"b""Famous Dave's is Now Hiring (Chantilly, VA)""",Ruling out this ad because of the word/phrase 'chantilly' in the title.
"b""* McCormick & Schmick's - HOURLY OPPTY'S - Restaurant, Bar, Kitchen * (901 F Street NW)""",Ruling out this ad because of the word/phrase 'bar' in the title.
b'Food Demonstrator',Ruling out this ad because of the word/phrase 'food' in the title.
"b""SERVER/BARTENDERS, HOSTS & RUNNERS- CHEF GEOFF'S  (Chef Geoff's New Mexico Avenue, NW)""",Ruling out this ad because of the word/phrase 'chef' in the title.
b'Junior Architect',Ruling out this ad because of the word/phrase 'architect' in the title.
"b'Food Demonstrator - Washington, DC - $14/Hour'",Ruling out this ad because of the word/phrase 'food' in the title.
"b'Teacher Wanted for Childcare Center in NE Washington, DC (NE, Washington DC)'",Ruling out this ad because of the word/phrase 'teacher' in the title.
b'Director of Dining Services (Washington DC)',Ruling out this ad because of the word/phrase 'dining' in the title.
b'Customer Service Representatives (Silver Spring)',Ruling out this ad because of the word/phrase 'silver' in the title.
"b'Talent Acquisition Specialist - AIRS, CIR, Recruiter - 14352 (Washington, DC )'",Ruling out this ad because of the word/phrase 'recruiter' in the title.
b'Lead Technical Architect',Ruling out this ad because of the word/phrase 'architect' in the title.
b'Windows Administrator (washington dc)',Job Hit!
"b'Help Desk Technician (Washington, DC)'",Ruling out this ad because of the word/phrase 'technician' in the title.
b'Urban/Hip Hop Editor Needed for Popular Site',Ruling out this ad because of the word/phrase 'site' in the title.
b'Accountant 75K- Culture of Excellence',Ruling out this ad because of the word/phrase 'accountant' in the title.
b'Middle School Teacher Math & Science (D.C.)',Ruling out this ad because of the word/phrase 'teacher' in the title.
b'BILLING SUPERVISOR/TEAM LEAD (ROCKVILLE)',Ruling out this ad because of the word/phrase 'rockville' in the title.
"b""Assistant Restaurant Manager- Todd Gray's Watershed (Capitol Hill Area)""",Ruling out this ad because of the word/phrase 'restaurant' in the title.
"b'Successful, Experienced In-Home Sales Manager'",Ruling out this ad because of the word/phrase 'sales' in the title.
"b'Kitchen & Bath Designer (DC,VA,MD)'",Ruling out this ad because of the word/phrase 'md' in the title.
"b'Seeking Recent Graduates - Assistant position with Law Firm (Washington, DC)'",Job Hit!
"b'Seeking Recent Graduates - Assistant position with Law Firm (Washington, DC)'",No easy-to-find email address.
"b'master plumber, licensed electrician, skilled carpenter'",Ruling out this ad because of the word/phrase 'electrician' in the title.
b'Facilities Manager (nw dc)',Job Hit!
"b""Do you dream of a job that will pay you to travel? Sales Pro's! (washington)""",Ruling out this ad because of the word/phrase 'sales' in the title.
b'Customer Service Specialist w/ Call Center exp (nw dc)',Ruling out this ad because of the word/phrase 'call' in the title.
