b'Kinder Enrichment Teacher 1:15',Ruling out this ad because of the word/phrase 'teacher' in the title.
b'PLUMBER NEEDED - Also helper ',Ruling out this ad because of the word/phrase 'plumber' in the title.
b'Store Manager/Assistant Manager-clothing- great work/life balance',Ruling out this ad because of the word/phrase 'store' in the title.
b'Medical Receptionist',Ruling out this ad because of the word/phrase 'medical' in the title.
b'THE COUNTER RESTON IS SEEKING KITCHEN STAFF',Ruling out this ad because of the word/phrase 'kitchen' in the title.
b'Patient Care Coordinator',Ruling out this ad because of the word/phrase 'care' in the title.
b'FOOD DELIVERY DRIVERS ',Ruling out this ad because of the word/phrase 'delivery' in the title.
b'PROGRAMMER / DESIGNER',Ruling out this ad because of the word/phrase 'programmer' in the title.
b'Dental Assistant - Part time ',Ruling out this ad because of the word/phrase 'dental' in the title.
b'Assistant Property Manager',Job Hit!
b'Kinder Enrichment Teacher 1:15',Ruling out this ad because of the word/phrase 'teacher' in the title.
b'PLUMBER NEEDED - Also helper ',Ruling out this ad because of the word/phrase 'plumber' in the title.
b'Store Manager/Assistant Manager-clothing- great work/life balance',Ruling out this ad because of the word/phrase 'store' in the title.
b'Medical Receptionist',Ruling out this ad because of the word/phrase 'medical' in the title.
b'THE COUNTER RESTON IS SEEKING KITCHEN STAFF',Ruling out this ad because of the word/phrase 'kitchen' in the title.
b'Patient Care Coordinator',Ruling out this ad because of the word/phrase 'care' in the title.
b'FOOD DELIVERY DRIVERS ',Ruling out this ad because of the word/phrase 'delivery' in the title.
b'PROGRAMMER / DESIGNER',Ruling out this ad because of the word/phrase 'programmer' in the title.
b'Dental Assistant - Part time ',Ruling out this ad because of the word/phrase 'dental' in the title.
b'Assistant Property Manager',Job Hit!
b'Kinder Enrichment Teacher 1:15',Ruling out this ad because of the word/phrase 'teacher' in the title.
b'PLUMBER NEEDED - Also helper ',Ruling out this ad because of the word/phrase 'plumber' in the title.
b'Store Manager/Assistant Manager-clothing- great work/life balance',Ruling out this ad because of the word/phrase 'store' in the title.
b'Medical Receptionist',Ruling out this ad because of the word/phrase 'medical' in the title.
b'THE COUNTER RESTON IS SEEKING KITCHEN STAFF',Ruling out this ad because of the word/phrase 'kitchen' in the title.
b'Patient Care Coordinator',Ruling out this ad because of the word/phrase 'care' in the title.
b'FOOD DELIVERY DRIVERS ',Ruling out this ad because of the word/phrase 'delivery' in the title.
b'PROGRAMMER / DESIGNER',Ruling out this ad because of the word/phrase 'programmer' in the title.
b'Dental Assistant - Part time ',Ruling out this ad because of the word/phrase 'dental' in the title.
b'Assistant Property Manager',Job Hit!
b'IN HOUSE PHOTOGRAPHER WANTED FOR REAL ESTATE COMPANY',Ruling out this ad because of the word/phrase 'real\ estate' in the title.
b'Project Engineer / APM',Ruling out this ad because of the word/phrase 'engineer' in the title.
b'DELIVERY DRIVERS NEEDED!!',Ruling out this ad because of the word/phrase 'delivery' in the title.
b'Store Delivery Drivers',Ruling out this ad because of the word/phrase 'delivery' in the title.
b'Executive Administrative Assistant',Job Hit!
b'IN HOUSE PHOTOGRAPHER WANTED FOR REAL ESTATE COMPANY',Ruling out this ad because of the word/phrase 'real\ estate' in the title.
b'Project Engineer / APM',Ruling out this ad because of the word/phrase 'engineer' in the title.
b'DELIVERY DRIVERS NEEDED!!',Ruling out this ad because of the word/phrase 'delivery' in the title.
b'Store Delivery Drivers',Ruling out this ad because of the word/phrase 'delivery' in the title.
b'Executive Administrative Assistant',Job Hit!
b'IN HOUSE PHOTOGRAPHER WANTED FOR REAL ESTATE COMPANY',Ruling out this ad because of the word/phrase 'real\ estate' in the title.
b'Project Engineer / APM',Ruling out this ad because of the word/phrase 'engineer' in the title.
b'DELIVERY DRIVERS NEEDED!!',Ruling out this ad because of the word/phrase 'delivery' in the title.
b'Store Delivery Drivers',Ruling out this ad because of the word/phrase 'delivery' in the title.
b'Executive Administrative Assistant',Job Hit!
"b'NoPa Kitchen + Bar Seeks Fun, Talented Servers'",Ruling out this ad because of the word/phrase 'bar' in the title.
b'Bar Louie Now Hiring Servers &amp; Bartenders!',Ruling out this ad because of the word/phrase 'bar' in the title.
b'Kinder Enrichment Teacher 1:15',Ruling out this ad because of the word/phrase 'teacher' in the title.
b'PLUMBER NEEDED - Also helper ',Ruling out this ad because of the word/phrase 'plumber' in the title.
b'Store Manager/Assistant Manager-clothing- great work/life balance',Ruling out this ad because of the word/phrase 'store' in the title.
b'Medical Receptionist',Ruling out this ad because of the word/phrase 'medical' in the title.
b'THE COUNTER RESTON IS SEEKING KITCHEN STAFF',Ruling out this ad because of the word/phrase 'kitchen' in the title.
b'Patient Care Coordinator',Ruling out this ad because of the word/phrase 'care' in the title.
b'FOOD DELIVERY DRIVERS ',Ruling out this ad because of the word/phrase 'delivery' in the title.
b'PROGRAMMER / DESIGNER',Ruling out this ad because of the word/phrase 'programmer' in the title.
b'Dental Assistant - Part time ',Ruling out this ad because of the word/phrase 'dental' in the title.
b'Assistant Property Manager',Job Hit!
b'Registered Nurse- Outpatient',Ruling out this ad because of the word/phrase 'nurse' in the title.
b'Cook at the Courtyard Marriott Tysons ',Ruling out this ad because of the word/phrase 'cook' in the title.
"b'Part-Time Recruiting Assistant Job in Washington, DC'",Job Hit!
b'Receptionist /Office management -Start ASAP',Job Hit!
b'Marketing Writer',Ruling out this ad because of the word/phrase 'marketing' in the title.
b'Restaurant Supervisor at Courtyard by Marriott ',Ruling out this ad because of the word/phrase 'restaurant' in the title.
b'Facilities Assistant Manager',Job Hit!
"b'Pollo-Mex esta contratando, meseros,Dishwshr/Driver/cook/prep-linecook'",Ruling out this ad because of the word/phrase 'cook' in the title.
b'Application Developer/Software Programmer',Ruling out this ad because of the word/phrase 'developer' in the title.
b'Class A Company Driver Needed! Full Time Position!!',Ruling out this ad because of the word/phrase 'driver' in the title.
"b'Imediate Opening for Skilled, Experienced Plumber!'",Ruling out this ad because of the word/phrase 'plumber' in the title.
b'Bilingual Spanish/English Paralegal',Ruling out this ad because of the word/phrase 'bilingual' in the title.
b'Outside Sales Executive / Restaurant Wrangler',Ruling out this ad because of the word/phrase 'restaurant' in the title.
b'Growing Burger Concept Looking For Chef!!!!!',Ruling out this ad because of the word/phrase 'chef' in the title.
b'Sous Chefs and Assistant Managers - WANTED',Job Hit!
b'Project Engineer',Ruling out this ad because of the word/phrase 'engineer' in the title.
b'Inside Sales Rep',Ruling out this ad because of the word/phrase 'sales' in the title.
b'Personal Trainer - Private Studio - 8-4 M-F',Ruling out this ad because of the word/phrase 'trainer' in the title.
b'Hire a receptionist',Job Hit!
b'Dental Front Desk Receptionist In Fairfax',Ruling out this ad because of the word/phrase 'dental' in the title.
b' Empower kids with the power of numbers ! Apply in Study Sparkz',Ruling out this ad because of the word/phrase 'study' in the title.
b'Experienced In-Home Plumbing Sales Representative',Ruling out this ad because of the word/phrase 'representative' in the title.
b'SENIOR PROJECT ARCHITECT',Ruling out this ad because of the word/phrase 'architect' in the title.
b'Sales Professionals Needed ',Ruling out this ad because of the word/phrase 'sales' in the title.
b'Experienced Residential and Commercial HVAC Technicians',Ruling out this ad because of the word/phrase 'commercial' in the title.
b'Cook',Ruling out this ad because of the word/phrase 'cook' in the title.
b'ASSISTANT PASTRY CHEF',Ruling out this ad because of the word/phrase 'chef' in the title.
b'LEGAL ASSISTANT',Ruling out this ad because of the word/phrase 'legal' in the title.
b'Supervisor - Johnny Rockets - Fun Company',Ruling out this ad because of the word/phrase 'supervisor' in the title.
b'Marketing Coordinator ',Ruling out this ad because of the word/phrase 'marketing' in the title.
b'Marketing Coordinator',Ruling out this ad because of the word/phrase 'marketing' in the title.
b'HVAC Commercial Service &amp; Controls Technician',Ruling out this ad because of the word/phrase 'commercial' in the title.
"b'Store Manager - Springfield, VA'",Ruling out this ad because of the word/phrase 'store' in the title.
b'Kitchen Help',Ruling out this ad because of the word/phrase 'kitchen' in the title.
"b'Project architect, part time position'",Ruling out this ad because of the word/phrase 'architect' in the title.
b'Sales Receptionist',Ruling out this ad because of the word/phrase 'sales' in the title.
b'Delivery Driver -Chofer ',Ruling out this ad because of the word/phrase 'delivery' in the title.
b'Math/Science/History/English/Test Prep Tutor Needed',Ruling out this ad because of the word/phrase 'tutor' in the title.
b'Servers/Bartenders in Georgetown Bar/Restaurant',Ruling out this ad because of the word/phrase 'bar' in the title.
b'Brand Advocate/Driver for Automotive/Hotel Partnership $16-18/hr',Ruling out this ad because of the word/phrase 'driver' in the title.
b'Seasonal Tax Specialist',Ruling out this ad because of the word/phrase 'tax' in the title.
b'Driver positions with MV Transportation! Apply Now!',Ruling out this ad because of the word/phrase 'driver' in the title.
b'Leasing Consultant Job fair!',Ruling out this ad because of the word/phrase 'leasing' in the title.
b'Legal Fellow',Ruling out this ad because of the word/phrase 'legal' in the title.
b'Part-Time Teacher Needed!!',Ruling out this ad because of the word/phrase 'teacher' in the title.
b'Admin Assistant/Bookkeeper (Part-time)',Ruling out this ad because of the word/phrase 'bookkeeper' in the title.
b'Imediate Opening for Administrative Assistant!',Job Hit!
b'Part-Time Retail Sales',Ruling out this ad because of the word/phrase 'sales' in the title.
b'IN HOUSE PHOTOGRAPHER WANTED FOR REAL ESTATE COMPANY',Ruling out this ad because of the word/phrase 'real\ estate' in the title.
b'Project Engineer / APM',Ruling out this ad because of the word/phrase 'engineer' in the title.
b'DELIVERY DRIVERS NEEDED!!',Ruling out this ad because of the word/phrase 'delivery' in the title.
b'Store Delivery Drivers',Ruling out this ad because of the word/phrase 'delivery' in the title.
b'Executive Administrative Assistant',Job Hit!
"b'NoPa Kitchen + Bar Seeks Fun, Talented Servers'",Ruling out this ad because of the word/phrase 'bar' in the title.
b'Bar Louie Now Hiring Servers &amp; Bartenders!',Ruling out this ad because of the word/phrase 'bar' in the title.
b'Kinder Enrichment Teacher 1:15',Ruling out this ad because of the word/phrase 'teacher' in the title.
b'PLUMBER NEEDED - Also helper ',Ruling out this ad because of the word/phrase 'plumber' in the title.
b'Store Manager/Assistant Manager-clothing- great work/life balance',Ruling out this ad because of the word/phrase 'store' in the title.
b'Medical Receptionist',Ruling out this ad because of the word/phrase 'medical' in the title.
b'THE COUNTER RESTON IS SEEKING KITCHEN STAFF',Ruling out this ad because of the word/phrase 'kitchen' in the title.
b'Patient Care Coordinator',Ruling out this ad because of the word/phrase 'care' in the title.
b'FOOD DELIVERY DRIVERS ',Ruling out this ad because of the word/phrase 'delivery' in the title.
b'PROGRAMMER / DESIGNER',Ruling out this ad because of the word/phrase 'programmer' in the title.
b'Dental Assistant - Part time ',Ruling out this ad because of the word/phrase 'dental' in the title.
b'Assistant Property Manager',Job Hit!
b'Registered Nurse- Outpatient',Ruling out this ad because of the word/phrase 'nurse' in the title.
b'Cook at the Courtyard Marriott Tysons ',Ruling out this ad because of the word/phrase 'cook' in the title.
"b'Part-Time Recruiting Assistant Job in Washington, DC'",Job Hit!
b'Receptionist /Office management -Start ASAP',Job Hit!
b'Marketing Writer',Ruling out this ad because of the word/phrase 'marketing' in the title.
b'Restaurant Supervisor at Courtyard by Marriott ',Ruling out this ad because of the word/phrase 'restaurant' in the title.
b'Facilities Assistant Manager',Job Hit!
"b'Pollo-Mex esta contratando, meseros,Dishwshr/Driver/cook/prep-linecook'",Ruling out this ad because of the word/phrase 'cook' in the title.
b'Application Developer/Software Programmer',Ruling out this ad because of the word/phrase 'developer' in the title.
b'Class A Company Driver Needed! Full Time Position!!',Ruling out this ad because of the word/phrase 'driver' in the title.
"b'Imediate Opening for Skilled, Experienced Plumber!'",Ruling out this ad because of the word/phrase 'plumber' in the title.
b'Bilingual Spanish/English Paralegal',Ruling out this ad because of the word/phrase 'bilingual' in the title.
b'Outside Sales Executive / Restaurant Wrangler',Ruling out this ad because of the word/phrase 'restaurant' in the title.
b'Growing Burger Concept Looking For Chef!!!!!',Ruling out this ad because of the word/phrase 'chef' in the title.
b'Sous Chefs and Assistant Managers - WANTED',Job Hit!
b'Project Engineer',Ruling out this ad because of the word/phrase 'engineer' in the title.
b'Inside Sales Rep',Ruling out this ad because of the word/phrase 'sales' in the title.
b'Personal Trainer - Private Studio - 8-4 M-F',Ruling out this ad because of the word/phrase 'trainer' in the title.
b'Hire a receptionist',Job Hit!
b'Dental Front Desk Receptionist In Fairfax',Ruling out this ad because of the word/phrase 'dental' in the title.
b' Empower kids with the power of numbers ! Apply in Study Sparkz',Ruling out this ad because of the word/phrase 'study' in the title.
b'Experienced In-Home Plumbing Sales Representative',Ruling out this ad because of the word/phrase 'representative' in the title.
b'SENIOR PROJECT ARCHITECT',Ruling out this ad because of the word/phrase 'architect' in the title.
b'Food Demonstrator - $14.00/Hour + Commission!',Ruling out this ad because of the word/phrase 'commission' in the title.
b'Protein Bar is looking for awesome leaders in DC! General Managers!',Ruling out this ad because of the word/phrase 'bar' in the title.
b'IT Help Desk Technician',Ruling out this ad because of the word/phrase 'technician' in the title.
b'Database Associate - Hillel International',Ruling out this ad because of the word/phrase 'database' in the title.
b'Administrative assistant/Front desk receptionist ',Job Hit!
b'Executive Director',Job Hit!
b'PHYSICIAN ASSISTANT (PA-C)',Job Hit!
b'RECEPTIONIST (part-time) - immediate opening',Job Hit!
b'Client Service Assistant',Job Hit!
b'!!!Entry Level B2B Sales / Medical Benefits / IMMEDIATE NEED!!!',Ruling out this ad because of the word/phrase 'medical' in the title.
b'Part Time Dog Walkers Needed!!!',Ruling out this ad because of the word/phrase 'dog' in the title.
b'Dump Truck Driver',Ruling out this ad because of the word/phrase 'driver' in the title.
b'Administrative Assistant',Job Hit!
Administrative Assistant,No easy-to-find email address.
b'Exterior Electrician',Ruling out this ad because of the word/phrase 'electrician' in the title.
"b'OUTSIDE SALES- Mobile Web Sites, SMS Campaigns AND MORE!'",Ruling out this ad because of the word/phrase 'sales' in the title.
b'Part-time Administrative Assistant ',Job Hit!
Part-time Administrative Assistant ,No easy-to-find email address.
b'Structural Engineer (Level I)',Ruling out this ad because of the word/phrase 'engineer' in the title.
b'Sr Network Engineer',Ruling out this ad because of the word/phrase 'engineer' in the title.
b'AUTO SALES-NO EXPERIENCE NEEDED',Ruling out this ad because of the word/phrase 'sales' in the title.
b'Structural Engineer (Level II)',Ruling out this ad because of the word/phrase 'engineer' in the title.
b'Tazza Kitchen Hiring for New Restaurant',Ruling out this ad because of the word/phrase 'kitchen' in the title.
b'New Restaurant in N. Bethesda - Pastry Chef',Ruling out this ad because of the word/phrase 'chef' in the title.
b'Recent Graduate Architect - 0 to 3 years',Ruling out this ad because of the word/phrase 'architect' in the title.
b'Hiring FT/ PT General Practitionar / Family Physician VA Licensed',Ruling out this ad because of the word/phrase 'family' in the title.
b'PIZZA VINOTECA OPEN CALL TOMORROW',Ruling out this ad because of the word/phrase 'call' in the title.
b'Bar Louie Now Hiring All Positions!',Ruling out this ad because of the word/phrase 'bar' in the title.
b'Personal Trainer Position',Ruling out this ad because of the word/phrase 'trainer' in the title.
b'Service Route Technician',Ruling out this ad because of the word/phrase 'technician' in the title.
b'Legal Assistant for Immigration Law Firm',Ruling out this ad because of the word/phrase 'law' in the title.
b'Marketing Assistant &amp; Community Manager',Ruling out this ad because of the word/phrase 'marketing' in the title.
b'Sr Commercial Insurance Coordinator',Ruling out this ad because of the word/phrase 'commercial' in the title.
b'Administrative Assistant (Job#4653) -Excellent Benefits + Great Salary',Job Hit!
Administrative Assistant (Job#4653) -Excellent Benefits + Great Salary,No easy-to-find email address.
b'MARBLE / GRANITE / TILE - KITCHEN &amp; BATH SHOWROOM SALES',Ruling out this ad because of the word/phrase 'kitchen' in the title.
b'Architect (Level II)',Ruling out this ad because of the word/phrase 'architect' in the title.
b'Maintenance Mechanic',Ruling out this ad because of the word/phrase 'maintenance' in the title.
b'Architect (Level I)',Ruling out this ad because of the word/phrase 'architect' in the title.
b'Accounting Coordinator',Ruling out this ad because of the word/phrase 'accounting' in the title.
b'Experienced Sales/Designer(s) Wanted ',Ruling out this ad because of the word/phrase 'sales' in the title.
b'Cell phone retail store needs manager sale staff &amp; repair technicians',Ruling out this ad because of the word/phrase 'store' in the title.
b'Assistant Designer FF&amp;E - Interior Design',Job Hit!
b'Account Executive',Ruling out this ad because of the word/phrase 'account' in the title.
b'Billing Specialist  (ASAP)',Ruling out this ad because of the word/phrase 'billing' in the title.
b'Pei Wei - Restaurant Kitchen Manager ',Ruling out this ad because of the word/phrase 'kitchen' in the title.
b'Overnight Floor Care',Ruling out this ad because of the word/phrase 'care' in the title.
b'Line Cooks/Brunch Kitchen Manager',Ruling out this ad because of the word/phrase 'kitchen' in the title.
b'Web Programmer (Python)',Ruling out this ad because of the word/phrase 'programmer' in the title.
b'Account Executive- Digital Advertising',Ruling out this ad because of the word/phrase 'account' in the title.
b'Apartment Maintenance Tech Needed',Ruling out this ad because of the word/phrase 'maintenance' in the title.
b'Account Manager/Supervisor- Digital Advertising',Ruling out this ad because of the word/phrase 'account' in the title.
"b'***$3000 Sign On Bonus*** Local Delivery Driver (Sterling, VA)'",Ruling out this ad because of the word/phrase 'delivery' in the title.
b'Video Producer w/After Effects',Ruling out this ad because of the word/phrase 'producer' in the title.
b'LOVE FASHION? BUFFALO EXCHANGE seeks Buyers',Ruling out this ad because of the word/phrase 'fashion' in the title.
b'DENTAL RECEPTIONIST',Ruling out this ad because of the word/phrase 'dental' in the title.
"b""* Morton\\'s The Steakhouse - Opportunity for Experienced LINE COOK *""",Ruling out this ad because of the word/phrase 'cook' in the title.
b'Dental Professionals-make extra money for the holidays',Ruling out this ad because of the word/phrase 'dental' in the title.
b'Jamberry Nails - Direct Sales - Be Your Own Boss',Ruling out this ad because of the word/phrase 'sales' in the title.
b'Marketing Account Coordinator',Ruling out this ad because of the word/phrase 'account' in the title.
b'Media Systems Technician ',Ruling out this ad because of the word/phrase 'systems' in the title.
b'Piano Teacher for \\xef\\xbf\\xbdtudes',Ruling out this ad because of the word/phrase 'teacher' in the title.
