{
	"corey.a.t.best@gmail.com" : {
		"rss_address" : "http://washingtondc.craigslist.org/doc/jjj/index.rss" ,
		"password" : "easy2remember",
		"message" : "Good Day:\n\nI am pleased to submit my resume for the dynamic administrative support position with your company.  I am that creative, talented, and experienced candidate that you seek.  I feel my extensive administrative support experience and desire to join your team make me an ideal candidate for this position.  \n\nI am proficient in Microsoft Office, have extensive sales and customer service skills, and I am a highly punctual and dependable team player.  I am available immediately and may be reached by calling (202) 321-3426. Thank you and I look forward to speaking with you regarding this dynamic position.\n\nKindest Regards,\nCorey Best\n\n{post.link}" ,
		"attachments" : [
			"Corey Best Resume.doc"
		] ,
		"neighborhoods_that_rule_out_an_ad" : [
			"alexandria",
			"annandale",
			"arlington",
			"ashburn",
			"baltimore",
			"beltsville",
			"bethesda",
			"burke",
			"burtonsville",
			"centreville",
			"chantilly",
			"chevy chase",
			"college park",
			"dunn loring",
			"fairfax",
			"falls church",
			"fauquier",
			"forestville",
			"gainesville",
			"gaithersburg",
			"germantown",
			"herndon",
			"landsdowne",
			"laurel",
			"manassas",
			"maryland",
			"mclean",
			"md",
			"montgomery",
			"nova",
			"pohanka",
			"reston",
			"rockville",
			"rosslyn",
			"silver",
			"springfield",
			"sterling",
			"tyson",
			"tysons",
			"va",
			"virginia",
			"warrenton",
			"wheaton"
		],
		"job_descriptions_that_rule_out_an_ad" : [
			"accountant",
			"accounting",
			"architect",
			"arthritis",
			"arts",
			"assurance",
			"auction",
			"baking",
			"bar",
			"bilingual",
			"billing",
			"bookkeeper",
			"brasserie",
			"call",
			"care",
			"caregiver",
			"case",
			"chef",
			"chiropractic",
			"clinical",
			"comcast",
			"commercial",
			"commission",
			"compensation",
			"compliance",
			"controller",
			"cook",
			"creative",
			"delivery",
			"dental",
			"dentist",
			"diabetes",
			"dining",
			"directv",
			"dish",
			"dishwasher",
			"dog",
			"driver",
			"education",
			"electrician",
			"family",
			"fashion",
			"fitness",
			"floor",
			"food",
			"grooming",
			"grill",
			"guest",
			"head",
			"honda",
			"hospitality",
			"inspector",
			"kitchen",
			"leasing",
			"lifeguard",
			"maintenance",
			"martial",
			"massage",
			"meals",
			"medical",
			"motorcycle",
			"npo",
			"nurse",
			"optician",
			"optometric",
			"optometry",
			"orthodontic",
			"pantry",
			"pastry",
			"pizza",
			"portfolio",
			"plumber",
			"producer",
			"quality",
			"real estate",
			"realtor",
			"receivable",
			"recruiter",
			"relations",
			"representative",
			"restaurant",
			"revenue",
			"sales",
			"salon",
			"sap",
			"site",
			"soccer",
			"storage",
			"store",
			"studies",
			"study",
			"supervisor",
			"system",
			"systems",
			"tax",
			"teacher",
			"technician",
			"therapist",
			"therapy",
			"trainer",
			"veterinary",
			"youth"
		],
		"words_of_interest" : [
			"administrative",
			"administrator",
			"admin assistant",
			"assistant",
			"dental assistant",
			"office assistant",
			"receptionist"
		]
	}
}